{"status":"success","data":{"title":"Novedades","slug":"novedades","data":{"metadata":{"count":16,"page":1,"total":910,"total_pages":57},"index":["1055650a-c2cc-4590-bfdc-80abc134e720_TheLastStand2013","1493ac61-8110-4a8c-8063-716f4673bb6b_LosGirasolesCiegos","1493ac61-6f09-4a90-a382-5e8639856490_ElPalo","14a1e7f9-27ae-42e5-9973-a4a67cab45ac_BreatheIn2013","1493ac61-5090-41b6-b221-bdf23a5ed8c7_SonDeMar","14a1ea18-110d-45a4-bb5b-c1a4d146a462_DesertDancer2014","14a78ad5-e147-41bc-ba1b-35c3a4ded6f8_PrisonerOfHonor1991","1493ac61-7f28-4767-a9e3-9b3a1acf4278_LaNocheDeLosGirasoles","1493ac61-345a-4b64-8dd7-dfd090528607_ElBola","14962ad2-dcb1-450d-953e-d4a1d41485ac_BlairWitch2016","14b8a5df-48bc-4a83-865f-1a626e8ceefe_BelovedSisters2014","1482666d-6647-4829-9e80-f4b897f38e97_TheWaterDiviner","1497651d-daaf-444e-b36b-75e1943952f5_BasedOnTrueStory","1493ac61-666a-4f4e-bc02-6d4126d550b1_ElSeptimoDia","14531a9e-d447-47fb-b9f4-d019108935d6_ConteDEte","14531a9e-8ed6-447b-a003-227c9c5b1f89_ConteDAutomne"],"elements":[{"uuid":"14531a9e-8ed6-447b-a003-227c9c5b1f89_ConteDAutomne","slug":"cuento-de-otono","type":"abono","title":"Cuento de oto\u00f1o","title_original":"Conte d'automne","tmdb_id":null,"imdb_id":null,"imdb_rating":75,"time_start":0,"time_finish":0,"main_category":null,"summary_full":"Para su \u00faltimo cuento de las cuatro estaciones, \u00c9ric Rohmer re\u00fane a dos actrices que conoce a la perfecci\u00f3n: Marie Rivi\u00e8re, protagonista de 'La mujer del aviador' (1981) y 'El rayo verde' (1986), y B\u00e9atrice Romand, quien interpret\u00f3 a Laura en 'La rodilla de Clara' (1970) y luego protagoniz\u00f3 'Amor en la hierba' (1982). El resultado es una comedia rom\u00e1ntica libre, elegante e imprevisible, con estupendos di\u00e1logos y un importante lugar reservado para los caprichos del destino y la casualidad, fiel al estilo idiosincr\u00e1tico de Rohmer. Situada en oto\u00f1o, el tiempo de la cosecha de la vid, el film reflexiona acerca de la maduraci\u00f3n, el paso del tiempo y el romance en la mediana edad. Filmada en locaci\u00f3n en la regi\u00f3n R\u00f3dano-Alpes, en el sur de Francia, la pel\u00edcula se destaca adem\u00e1s por la bella fotograf\u00eda oto\u00f1al a cargo de Diane Baratier, con quien Rohmer ya hab\u00eda colaborado en la anterior entrega de la saga, 'Cuento de verano' (1996). La pel\u00edcula fue estrenada mundialmente en el festival de Venecia, donde recibi\u00f3 la Osella de Oro al mejor guion por unanimidad.","summary_short":"Isabelle est\u00e1 decidida a encontrarle marido a su amiga viuda Magali, una viticultora de 45 a\u00f1os que vive en el sur de Francia. Sin que ella lo sepa, publica un aviso en el peri\u00f3dico y encuentra a m\u00e1s de un pretendiente.","runtime":107,"multilanguage":0,"aspect_ratio":"1.78","aired_from":"1998-01-01","aired_to":"1998-12-31","season":null,"episode":null,"created_at":"2021-12-02 19:00:47","updated_at":"2021-12-06 16:06:07","share_url":"http:\/\/qubitargentina.qbst.com.ar\/content\/14531a9e-8ed6-447b-a003-227c9c5b1f89_ConteDAutomne","price":null,"available_from":"2021-11-02","available_to":"2022-12-01","subtitle_tracks":"es","audio_default":"fr","audio_tracks":["fr"],"rating":{"id":1,"name":"Ni\u00f1os (0-12 a\u00f1os)","name_short":"ATP"},"status":{"seen":false,"like":null,"watchlater":false,"language":null,"subtitle":null,"progress":0,"playcount":0},"genres":[{"slug":"comedia","name":"Comedia","visible":1,"images":[{"type_name":"genre_background","default":true,"source":"https:\/\/assets.cdnar.net\/qubit\/genres\/comedia.jpg"},{"type_name":"genre_background","default":true,"source":"https:\/\/assets.cdnar.net\/qubit\/genres\/comedia.jpg"}]},{"slug":"romantico","name":"Rom\u00e1ntico","visible":0,"images":[]},{"slug":"drama","name":"Drama","visible":1,"images":[{"type_name":"genre_background","default":true,"source":"https:\/\/assets.cdnar.net\/qubit\/genres\/drama.jpg"},{"type_name":"genre_background","default":true,"source":"https:\/\/assets.cdnar.net\/qubit\/genres\/drama.jpg"}]},{"slug":"de-autor","name":"De Autor","visible":0,"images":[]}],"directors":[{"slug":"eric-rohmer","name":"\u00c9ric Rohmer","roles":["director"],"images":[{"type_name":"profile_picture","default":true,"source":"https:\/\/assets.cdnar.net\/qubit\/images_people\/staging\/eric-rohmer-profile-4VUnQk2yA6m58uak9LguIAzZ8Re.jpg"}]}],"actors":[{"slug":"marie-riviere","name":"Marie Rivi\u00e8re","roles":["cast"],"images":[{"type_name":"profile_picture","default":true,"source":"https:\/\/assets.cdnar.net\/qubit\/images_people\/staging\/marie-riviere-profile-8dYXEsV8KwUUa1Zo9hC2gfGdvMW.jpg"}]},{"slug":"beatrice-romand","name":"B\u00e9atrice Romand","roles":["cast"],"images":[{"type_name":"profile_picture","default":true,"source":"https:\/\/assets.cdnar.net\/qubit\/images_people\/staging\/beatrice-romand-profile-cLGBzl6sCj7G2GQohXMyxiq9NFU.jpg"}]},{"slug":"alain-libolt","name":"Alain Libolt","roles":["cast"],"images":[{"type_name":"profile_picture","default":true,"source":"https:\/\/assets.cdnar.net\/qubit\/images_people\/staging\/alain-libolt-profile-e1tWOgNk2W5JhucO30vthXIQKeR.jpg"}]},{"slug":"didier-sandre","name":"Didier Sandre","roles":["cast"],"images":[{"type_name":"profile_picture","default":true,"source":"https:\/\/assets.cdnar.net\/qubit\/images_people\/staging\/didier-sandre-profile-dtP5GRgZzipufXoDB1QrIDuqYi9.jpg"}]},{"slug":"alexia-portal","name":"Alexia Portal","roles":["cast"],"images":[{"type_name":"profile_picture","default":true,"source":"https:\/\/assets.cdnar.net\/qubit\/images_people\/staging\/alexia-portal-profile-8KGd6ANupsfJEP89m1w13Hkh664.jpg"}]},{"slug":"stephane-darmon","name":"St\u00e9phane Darmon","roles":["cast"],"images":[]}],"keywords":[],"tags":[{"slug":"los-noventa","name":"Los noventa"},{"slug":"amistad","name":"Amistad"},{"slug":"matrimonio","name":"Matrimonio"},{"slug":"soledad","name":"Soledad"},{"slug":"madre-e-hijo","name":"Madre e hijo"}],"countries":[{"slug":"francia","name":"Francia"}],"images":[{"type_name":"content_boxart","default":true,"source":"https:\/\/twimglevel3.cdnar.net\/contents\/14531a9e-8ed6-447b-a003-227c9c5b1f89_ConteDAutomne\/thumbnails\/tv.jpg"},{"type_name":"content_boxart_highlight","default":true,"source":"https:\/\/twimglevel3.cdnar.net\/contents\/14531a9e-8ed6-447b-a003-227c9c5b1f89_ConteDAutomne\/thumbnails\/large_doble.jpg"},{"type_name":"content_fanart","default":true,"source":"https:\/\/twimglevel3.cdnar.net\/contents\/14531a9e-8ed6-447b-a003-227c9c5b1f89_ConteDAutomne\/thumbnails\/fanart_1.jpg"},{"type_name":"content_fanart","default":false,"source":"https:\/\/twimglevel3.cdnar.net\/contents\/14531a9e-8ed6-447b-a003-227c9c5b1f89_ConteDAutomne\/thumbnails\/fanart_2.jpg"},{"type_name":"content_fanart","default":false,"source":"https:\/\/twimglevel3.cdnar.net\/contents\/14531a9e-8ed6-447b-a003-227c9c5b1f89_ConteDAutomne\/thumbnails\/fanart_3.jpg"},{"type_name":"content_fanart","default":false,"source":"https:\/\/twimglevel3.cdnar.net\/contents\/14531a9e-8ed6-447b-a003-227c9c5b1f89_ConteDAutomne\/thumbnails\/fanart_4.jpg"}]}]}}}